{"docs":[{"backdrop":{"url":"https://avatars.mds.yandex.net/get-ott/239697/2a0000016a5007a545f394e0cae67c3da7f1/1344x756","previewUrl":"https://avatars.mds.yandex.net/get-ott/239697/2a0000016a5007a545f394e0cae67c3da7f1/678x380"},"shortDescription":"Двое детей пытаются выжить в блокадном Ленинграде. Пронзительная драма о глубине горя и силе любви","ageRating":6,"names":[{"name":"Крик тишины","language":"RU","type":"Russian title on kinopoisk"}],"id":1228407,"name":"Крик тишины","isSeries":false,"type":"movie","poster":{"url":"https://avatars.mds.yandex.net/get-kinopoisk-image/4774061/a3c9705f-e6cc-40d6-821f-ced1b04308f2/600x900","previewUrl":"https://avatars.mds.yandex.net/get-kinopoisk-image/4774061/a3c9705f-e6cc-40d6-821f-ced1b04308f2/300x450"},"countries":[{"name":"Россия"}],"alternativeName":"Крик тишины","description":"Блокадный Ленинград, февраль 1942 года. Заканчивается самая страшная блокадная зима. Зина Воронова совсем отчаялась. Ее трёхлетний сын Митя ослабел, а карточки на хлеб уже отоварены на два дня вперед. Последняя надежда — эвакуация. Но с маленькими детьми не берут. Тогда женщина идет на чудовищный шаг — эвакуируется, оставив сына одного в промерзшей квартире. Во время налета мальчика спасает девочка-подросток Катя. Девочка выдает Митю за своего брата и обещает себе сделать все, чтобы Митя выжил. Несмотря ни на что.","genres":[{"name":"драма"},{"name":"история"},{"name":"военный"}],"typeNumber":1,"movieLength":97,"rating":{"kp":8.559,"imdb":6.5,"filmCritics":0,"russianFilmCritics":0,"await":0},"votes":{"kp":259694,"imdb":178,"filmCritics":0,"russianFilmCritics":0,"await":0},"year":2019,"ticketsOnSale":false,"logo":{"url":null,"previewUrl":null}},{"isSeries":false,"ticketsOnSale":false,"votes":{"kp":242834,"imdb":120000,"filmCritics":236,"russianFilmCritics":2,"await":0},"type":"movie","year":2019,"name":"Темные воды","ageRating":18,"ratingMpaa":"pg13","poster":{"url":"https://avatars.mds.yandex.net/get-kinopoisk-image/1599028/ea788ce3-1651-4f2b-a0b3-5a3dee2ec496/600x900","previewUrl":"https://avatars.mds.yandex.net/get-kinopoisk-image/1599028/ea788ce3-1651-4f2b-a0b3-5a3dee2ec496/300x450"},"countries":[{"name":"США"}],"description":"Адвокат Роберт Билотт выступает с обвинением в суде против компании DuPont, которая десятилетиями цинично травила людей, загрязняя химикатами питьевую воду. Он ведет это дело 19 лет. Сможет ли он пролить свет на правду?","shortDescription":"Преуспевающий адвокат случайно ввязывается в войну с опасной корпорацией. Острый эко-триллер с Марком Руффало","movieLength":126,"id":1228069,"alternativeName":"Dark Waters","backdrop":{"url":"https://avatars.mds.yandex.net/get-ott/223007/2a000001701b3926449f76838a534a786ee5/1344x756","previewUrl":"https://avatars.mds.yandex.net/get-ott/223007/2a000001701b3926449f76838a534a786ee5/678x380"},"typeNumber":1,"rating":{"kp":7.909,"imdb":7.6,"filmCritics":7.3,"russianFilmCritics":0,"await":0},"genres":[{"name":"драма"},{"name":"детектив"},{"name":"биография"},{"name":"история"}],"names":[{"name":"Темные воды","language":"RU","type":"Russian title on kinopoisk"},{"name":"Dark Waters","language":null,"type":"Original title on kinopoisk"}],"logo":{"url":null,"previewUrl":null}},{"ageRating":18,"votes":{"kp":440461,"imdb":15000,"filmCritics":49,"russianFilmCritics":19,"await":0},"backdrop":{"url":"https://avatars.mds.yandex.net/get-ott/2419418/2a000001791c6c7372533ca9b9e67a49c70a/1344x756","previewUrl":"https://avatars.mds.yandex.net/get-ott/2419418/2a000001791c6c7372533ca9b9e67a49c70a/678x380"},"name":"Уроки фарси","movieLength":128,"ticketsOnSale":false,"countries":[{"name":"Россия"},{"name":"Германия"},{"name":"Беларусь"}],"names":[{"name":"Уроки фарси","language":"RU","type":"Russian title on kinopoisk"},{"name":"Persian Lessons","language":null,"type":"Original title on kinopoisk"}],"typeNumber":1,"description":"1942 год, оккупированная Европа. Оказавшись в концлагере, бельгиец еврейского происхождения Жиль Кремье выдает себя за перса — для него это единственная возможность остаться в живых. Довольные таким редким уловом немецкие солдаты приводят Жиля к концлагерному повару Клаусу Коху, который мечтает, как только закончится война, уехать в Иран и открыть там ресторан. Кох ищет настоящего перса, который научит его говорить на фарси. Так начинается история Жиля Кремье и Клауса Коха — еврея и немца, узника и тюремщика, учителя и ученика.","year":2020,"shortDescription":"Еврей выдает себя за перса, чтобы выжить в концлагере. Один из лучших российских фильмов о холокосте","alternativeName":"Persian Lessons","type":"movie","isSeries":false,"rating":{"kp":7.951,"imdb":7.4,"filmCritics":6.4,"russianFilmCritics":94.7368,"await":0},"poster":{"url":"https://avatars.mds.yandex.net/get-kinopoisk-image/4774061/8b7e3928-dd3b-4fd7-bcf0-d2fef1a2b403/600x900","previewUrl":"https://avatars.mds.yandex.net/get-kinopoisk-image/4774061/8b7e3928-dd3b-4fd7-bcf0-d2fef1a2b403/300x450"},"id":1209777,"genres":[{"name":"драма"},{"name":"военный"},{"name":"история"}],"logo":{"url":"https://image.tmdb.org/t/p/original/gwMvoMPQbkgOKh0skHRXlCsKGZ2.png","previewUrl":"https://image.tmdb.org/t/p/w500/gwMvoMPQbkgOKh0skHRXlCsKGZ2.png"}},{"votes":{"kp":424092,"imdb":2200,"filmCritics":0,"russianFilmCritics":3,"await":0},"backdrop":{"url":"https://avatars.mds.yandex.net/get-ott/2419418/2a0000018074a7e59dd5305591f87503943a/1344x756","previewUrl":"https://avatars.mds.yandex.net/get-ott/2419418/2a0000018074a7e59dd5305591f87503943a/678x380"},"type":"movie","isSeries":false,"alternativeName":"Подольские курсанты","ageRating":18,"rating":{"kp":8.387,"imdb":6.5,"filmCritics":0,"russianFilmCritics":33.3333,"await":0},"genres":[{"name":"военный"},{"name":"драма"},{"name":"история"},{"name":"боевик"}],"year":2020,"shortDescription":"Вчерашние курсанты держат оборону на подступах к Москве. Реалистичная драма от создателей «Брестской крепости»","id":1191022,"typeNumber":1,"poster":{"url":"https://avatars.mds.yandex.net/get-kinopoisk-image/6201401/de10de1e-aada-4445-9e65-ec764022600a/600x900","previewUrl":"https://avatars.mds.yandex.net/get-kinopoisk-image/6201401/de10de1e-aada-4445-9e65-ec764022600a/300x450"},"countries":[{"name":"Россия"}],"ticketsOnSale":false,"names":[{"name":"Подольские курсанты","language":"RU","type":"Russian title on kinopoisk"}],"name":"Подольские курсанты","description":"Октябрь 1941 года, Подмосковье. Около трёх с половиной тысяч курсантов подольских артиллерийского и пехотного училищ получают приказ занять оборону на Ильинском рубеже и совместно с регулярными частями 43-й армии сдерживать наступление фашистских захватчиков, пока не подойдёт подкрепление. Погибая, вчерашние мальчишки держат оборону от многократно превышающих сил немцев и на двенадцать дней становятся преградой на пути врага к Москве.","movieLength":136,"logo":{"url":"https://image.tmdb.org/t/p/original/5h00c2zRnZ6dN6TR6nXhJWzmlNe.png","previewUrl":"https://image.tmdb.org/t/p/w500/5h00c2zRnZ6dN6TR6nXhJWzmlNe.png"}},{"votes":{"kp":1428287,"imdb":867000,"filmCritics":472,"russianFilmCritics":19,"await":0},"typeNumber":1,"genres":[{"name":"детектив"},{"name":"комедия"},{"name":"драма"},{"name":"криминал"}],"alternativeName":"Knives Out","type":"movie","ageRating":18,"ratingMpaa":"pg13","rating":{"kp":8.186,"imdb":7.9,"filmCritics":8.3,"russianFilmCritics":89.4737,"await":0},"backdrop":{"url":"https://avatars.mds.yandex.net/get-ott/1648503/2a00000198a30ce65d3e21a89a074b3cf0fc/1344x756","previewUrl":"https://avatars.mds.yandex.net/get-ott/1648503/2a00000198a30ce65d3e21a89a074b3cf0fc/678x380"},"countries":[{"name":"США"}],"id":1188529,"ticketsOnSale":false,"year":2019,"movieLength":130,"names":[{"name":"Достать ножи","language":"RU","type":"Russian title on kinopoisk"},{"name":"Knives Out","language":null,"type":"Original title on kinopoisk"}],"shortDescription":"Частный детектив ведет запутанное дело о смерти известного писателя. Криминальная комедия с Дэниэлом Крэйгом","isSeries":false,"name":"Достать ножи","description":"На следующее утро после празднования 85-летия известного автора криминальных романов Харлана Тромби виновника торжества находят мёртвым. Налицо — явное самоубийство, но полиция по протоколу опрашивает всех присутствующих в особняке членов семьи, хотя, в этом деле больше заинтересован частный детектив Бенуа Блан. Тем же утром он получил конверт с наличными от неизвестного и заказ на расследование смерти Харлана. Не нужно быть опытным следователем, чтобы понять, что все приукрашивают свои отношения с почившим главой семейства, но Блану достаётся настоящий подарок — медсестра покойного, которая физически не выносит ложь.","poster":{"url":"https://avatars.mds.yandex.net/get-kinopoisk-image/10893610/e8aa9797-2c24-45fd-a53e-34cf91a8c27c/600x900","previewUrl":"https://avatars.mds.yandex.net/get-kinopoisk-image/10893610/e8aa9797-2c24-45fd-a53e-34cf91a8c27c/300x450"},"logo":{"url":"https://image.tmdb.org/t/p/original/105TMKoFArQWPYPZRZkiXxgAo1N.png","previewUrl":"https://image.tmdb.org/t/p/w500/105TMKoFArQWPYPZRZkiXxgAo1N.png"}},{"ageRating":6,"rating":{"kp":8.127,"imdb":6.5,"filmCritics":0,"russianFilmCritics":100,"await":0},"votes":{"kp":565407,"imdb":2000,"filmCritics":0,"russianFilmCritics":4,"await":0},"countries":[{"name":"Россия"}],"genres":[{"name":"драма"},{"name":"боевик"}],"names":[{"name":"Огонь","language":"RU","type":"Russian title on kinopoisk"}],"year":2020,"shortDescription":"Отряд пожарных спасает леса Карелии. Иван Янковский и Константин Хабенский в фильме-катастрофе","isSeries":false,"poster":{"url":"https://avatars.mds.yandex.net/get-kinopoisk-image/10592371/0f800256-6a9d-427e-b45b-083eb6a56f7b/600x900","previewUrl":"https://avatars.mds.yandex.net/get-kinopoisk-image/10592371/0f800256-6a9d-427e-b45b-083eb6a56f7b/300x450"},"alternativeName":"Огонь","type":"movie","typeNumber":1,"description":"После гибели подчинённого бывалый инструктор бригады пожарных Алексей Соколов хотел было уволиться, но лето в России — жаркая пора. Взяв в команду шестым нахального новичка, парня своей дочери, Соколов отправляется на очередное задание в Карелию. И это задание будет гораздо сложнее, чем он мог себе представить.","movieLength":131,"ticketsOnSale":false,"id":1183599,"name":"Огонь","backdrop":{"url":"https://avatars.mds.yandex.net/get-ott/2419418/2a00000178c58089bd0bf5f1c216556848e4/1344x756","previewUrl":"https://avatars.mds.yandex.net/get-ott/2419418/2a00000178c58089bd0bf5f1c216556848e4/678x380"},"logo":{"url":"https://image.tmdb.org/t/p/original/dZ8LxCG67HChuHZckVygEPdcm7r.png","previewUrl":"https://image.tmdb.org/t/p/w500/dZ8LxCG67HChuHZckVygEPdcm7r.png"}},{"type":"movie","ageRating":18,"isSeries":false,"description":"Берлин, 2001 год. Молодой адвокат Каспар Лайнен берётся защищать пожилого итальянца Фабрицио Коллини, который по непонятным причинам убил известного немецкого бизнесмена Ханса Майера, после чего сам сдался полиции. Ситуация осложняется не только молчанием Коллини и участием в процессе знаменитого и опытного прокурора, но и моральными аспектами. Внучка жертвы Йоханна была юношеской любовью Каспара, а сам Ханс Майер относился к нему как к сыну после ухода его родного отца из семьи. Вскоре Каспар обращает внимание на одну деталь и начинает своё расследование, которое может привести его к не самым приятным тайнам прошлого.","ticketsOnSale":false,"name":"Дело Коллини","year":2019,"poster":{"url":"https://avatars.mds.yandex.net/get-kinopoisk-image/4483445/f00f5607-affc-4db8-ba8d-a044355d9075/600x900","previewUrl":"https://avatars.mds.yandex.net/get-kinopoisk-image/4483445/f00f5607-affc-4db8-ba8d-a044355d9075/300x450"},"countries":[{"name":"Германия"}],"rating":{"kp":8.032,"imdb":7.3,"filmCritics":6.8,"russianFilmCritics":0,"await":0},"backdrop":{"url":"https://avatars.mds.yandex.net/get-ott/223007/2a0000016f8a57fa1fb188f4e0796139b6f7/1344x756","previewUrl":"https://avatars.mds.yandex.net/get-ott/223007/2a0000016f8a57fa1fb188f4e0796139b6f7/678x380"},"movieLength":123,"names":[{"name":"Дело Коллини","language":"RU","type":"Russian title on kinopoisk"},{"name":"Der Fall Collini","language":null,"type":"Original title on kinopoisk"}],"typeNumber":1,"shortDescription":"Загадочное убийство и темные страницы истории Германии. В роли мстителя — Франко Неро из старого «Джанго»","votes":{"kp":272383,"imdb":15000,"filmCritics":25,"russianFilmCritics":1,"await":0},"id":1179501,"alternativeName":"Der Fall Collini","genres":[{"name":"детектив"},{"name":"драма"},{"name":"триллер"}],"logo":{"url":"https://image.tmdb.org/t/p/original/qx9aMyBZ2vvTn6xvsCKkCXwboDj.png","previewUrl":"https://image.tmdb.org/t/p/w500/qx9aMyBZ2vvTn6xvsCKkCXwboDj.png"}},{"isSeries":false,"rating":{"kp":8.67,"imdb":7.8,"filmCritics":6.6,"russianFilmCritics":86.3636,"await":0},"alternativeName":"The Gentlemen","typeNumber":1,"description":"Один ушлый американец ещё со студенческих лет приторговывал наркотиками, а теперь придумал схему нелегального обогащения с использованием поместий обедневшей английской аристократии и очень неплохо на этом разбогател. Другой пронырливый журналист приходит к Рэю, правой руке американца, и предлагает тому купить киносценарий, в котором подробно описаны преступления его босса при участии других представителей лондонского криминального мира — партнёра-еврея, китайской диаспоры, чернокожих спортсменов и даже русского олигарха.","genres":[{"name":"криминал"},{"name":"комедия"},{"name":"боевик"}],"names":[{"name":"Джентльмены","language":"RU","type":"Russian title on kinopoisk"},{"name":"The Gentlemen","language":null,"type":"Original title on kinopoisk"}],"name":"Джентльмены","year":2019,"backdrop":{"url":"https://avatars.mds.yandex.net/get-ott/1648503/2a000001711b57abb795e9276957168f83e9/1344x756","previewUrl":"https://avatars.mds.yandex.net/get-ott/1648503/2a000001711b57abb795e9276957168f83e9/678x380"},"type":"movie","shortDescription":"Гангстеры всех мастей делят наркоферму. Закрученная экшен-комедия Гая Ричи с Мэттью Макконахи и Хью Грантом","ticketsOnSale":false,"poster":{"url":"https://avatars.mds.yandex.net/get-kinopoisk-image/1599028/637271d5-61b4-4e46-ac83-6d07494c7645/600x900","previewUrl":"https://avatars.mds.yandex.net/get-kinopoisk-image/1599028/637271d5-61b4-4e46-ac83-6d07494c7645/300x450"},"countries":[{"name":"США"},{"name":"Великобритания"}],"ageRating":18,"id":1143242,"votes":{"kp":2438892,"imdb":452000,"filmCritics":278,"russianFilmCritics":22,"await":0},"movieLength":113,"ratingMpaa":"r","logo":{"url":"https://image.tmdb.org/t/p/original/38ecooyBqaNOdOT0RbRmtw2n0Bn.png","previewUrl":"https://image.tmdb.org/t/p/w500/38ecooyBqaNOdOT0RbRmtw2n0Bn.png"}},{"year":2020,"shortDescription":"Тоскующая по хозяину овчарка и мальчик-сирота спасают друг друга от одиночества. История необычной дружбы","ticketsOnSale":false,"poster":{"url":"https://avatars.mds.yandex.net/get-kinopoisk-image/10900341/0173a9ba-1afd-4850-94f2-890d494128fb/600x900","previewUrl":"https://avatars.mds.yandex.net/get-kinopoisk-image/10900341/0173a9ba-1afd-4850-94f2-890d494128fb/300x450"},"backdrop":{"url":"https://avatars.mds.yandex.net/get-ott/12808873/2a000001965d4703f81409d3fa97a4356bdb/1344x756","previewUrl":"https://avatars.mds.yandex.net/get-ott/12808873/2a000001965d4703f81409d3fa97a4356bdb/678x380"},"genres":[{"name":"семейный"},{"name":"приключения"}],"isSeries":false,"countries":[{"name":"Россия"},{"name":"Япония"}],"name":"Пальма","id":1142206,"rating":{"kp":8.375,"imdb":6.8,"filmCritics":0,"russianFilmCritics":100,"await":0},"alternativeName":"Пальма","movieLength":110,"ageRating":6,"names":[{"name":"Пальма","language":"RU","type":"Russian title on kinopoisk"}],"description":"Овчарка по кличке Пальма вынужденно расстается с хозяином: тот улетает за границу, а верную собаку не берут на рейс и оставляют прямо на летном поле. Пальма прячется в аэропорту и каждый день встречает самолеты в надежде, что хозяин вернулся. Но время идет… 9-летний Коля — тоже новенький в аэропорту: он потерял маму и переехал к отцу-пилоту, которого почти не знает. Пальма становится для мальчика родственной душой и лучшим другом. А отцу Коли, летчику Лазареву, предстоит заслужить доверие и любовь сына, сделав нелегкий выбор между карьерой и семьей. И найти способ не разлучить друзей, когда за Пальмой однажды возвращается хозяин.","typeNumber":1,"votes":{"kp":162773,"imdb":1400,"filmCritics":0,"russianFilmCritics":6,"await":0},"type":"movie","logo":{"url":null,"previewUrl":null}},{"isSeries":false,"name":"Зеленая книга","alternativeName":"Green Book","description":"1960-е годы. После закрытия нью-йоркского ночного клуба на ремонт вышибала Тони по прозвищу Болтун ищет подработку на пару месяцев. Как раз в это время Дон Ширли — утонченный светский лев, богатый и талантливый чернокожий музыкант, исполняющий классическую музыку — собирается в турне по южным штатам, где ещё сильны расистские убеждения и царит сегрегация. Он нанимает Тони в качестве водителя, телохранителя и человека, способного решать текущие проблемы. У этих двоих так мало общего, и эта поездка навсегда изменит жизнь обоих.","movieLength":130,"ageRating":18,"poster":{"url":"https://avatars.mds.yandex.net/get-kinopoisk-image/4483445/1e2ed281-b1e8-4083-b721-3ece7afc1031/600x900","previewUrl":"https://avatars.mds.yandex.net/get-kinopoisk-image/4483445/1e2ed281-b1e8-4083-b721-3ece7afc1031/300x450"},"backdrop":{"url":"https://avatars.mds.yandex.net/get-ott/374297/2a000001989ebae65cb92cd1ea74d24d906d/1344x756","previewUrl":"https://avatars.mds.yandex.net/get-ott/374297/2a000001989ebae65cb92cd1ea74d24d906d/678x380"},"id":1108577,"genres":[{"name":"биография"},{"name":"комедия"},{"name":"драма"}],"countries":[{"name":"США"},{"name":"Китай"}],"names":[{"name":"Зеленая книга","language":"RU","type":"Russian title on kinopoisk"},{"name":"Green Book","language":null,"type":"Original title on kinopoisk"}],"year":2018,"ratingMpaa":"pg13","type":"movie","typeNumber":1,"shortDescription":"Путешествие итальянца-вышибалы и чернокожего пианиста по Америке 1960-х. «Оскар» за лучший фильм","ticketsOnSale":false,"rating":{"kp":8.546,"imdb":8.2,"filmCritics":7.3,"russianFilmCritics":93.3333,"await":0},"votes":{"kp":1409718,"imdb":674000,"filmCritics":362,"russianFilmCritics":15,"await":0},"logo":{"url":"https://image.tmdb.org/t/p/original/djpI18iaJ279igH6MjGgc0GZp55.png","previewUrl":"https://image.tmdb.org/t/p/w500/djpI18iaJ279igH6MjGgc0GZp55.png"}}],"total":250,"limit":10,"page":1,"pages":25}